{
  "type": "service_account",
  "project_id": "odoo-v16-ent",
  "private_key_id": "7f2ea94bab2f80d8a1c9a9b6ae7999e29c8dc53e",
  "private_key": "-----BEGIN PRIVATE KEY-----\nMIIEvgIBADANBgkqhkiG9w0BAQEFAASCBKgwggSkAgEAAoIBAQDZf40kgQYsRe2z\nhmUpDD8/sf4qxEjav2EgaUsnyRKfilMWiQPfOssXuRcr2V2OCv1TU8g12xfs8NJX\noyVJmIQpwh/jUzd4bjZh9IiNAy1n/izJpC4vvav+pAao3tGtQTdqOHUhktDUPhkh\nCb3jblf6qH7zAuVYKlcTZs08OS+RhQKRXvZZ/J93YPfGC6EINtP2mrG+EJh6169g\nI2a+1uMDrh4JuA4LaD3yACaZkb58wLVxv9Vd/oV35ZQGXdzzOcPhmF11LkgWj4sQ\n+1iWrQcTlF/pFf2W+AS74aTuAQu+SxuzoJ3lC5A6ZHw01k/BCqcdtUpo0SjqA7Vo\nMkmzeasdAgMBAAECggEAE1yBagB6VjKbaGHMW40VjEwB/jie66ohsUruP8psd/tO\nTjFAQPzw21nEsEiXRW/BAUvyBKlORe9iKh8B0L1c9oKraAceZwAYozurdDIWNq2v\nuvt8iQ9vYimj1iCPtcaackA4XRa+tEYa4pAFcVt/RXb+Zg+Z7vFF8xoxpuzISUHN\n58eq63JhO54qpnPzv53vtI2hie5GK2fXmFBuPNU+cUD5r6Omrnz57IfaLDJSPv50\nL7QPHHrLq2cxWBKuV8HO6NQzGjOcwhl3LYc+J3ZVkoU52Pfl6Pd4vWPufNzFSxg3\nS/6YWsmGIdarxrZYBniSd6CPH8SWwRBjJs1vHQCq2QKBgQDs6LjlWwQUZ50BPxwL\nmonxv14wOait3lxcU6puNLt0PlbqYa7pz7qjG1EgsZ69ltzhKzbyzpKAOd4Cy/yM\nOVRPDKrPQFC88WEUQLG+s/PB9W1tCpStoNbnSJQguoQlpa2N0QGixowUyhv3/tFN\nMjOc0fEPKVOy1tyYBwaYEGXDjwKBgQDrBmWH85e2anMJBH76HBIwpylIOm5oCU4r\n0AD6EFEsqij/f8hFk4rVTzCdpLPLvqFBF79C5gvqSnQu4TalIiZ1VJJ2UVtDdPJh\nF8tqBlVaJJyIZ/NdFnPjDR57TWj4Wz9086bGwK+16mlxofX4bf2zqq3oNhy5qpQx\nVkM3t5+gkwKBgG3FDxbGa0eBEtBnC3mc61mmD+BMdwnIxAbLhWZ27HxZ/i+vfzo6\n1AGLQLXjVugFpOZ3/YfXiy36ohGtrqDSV2whNGu/IynItfCKYVE5VDKEo2Uox+cD\nZU/Y4zme8mf3MklJlHZ1hKaFVxw7Z4NbRWreI9GglnWA9MlESBvhTSWlAoGBAKaa\n4Dqhybh8eZO45jJy18o5laAoG8AQaKPSTf72tjSNY4bLlLMNxms0OehmqzYRqso0\nBVdtMKEjqnzZFh21ucGO9Ex/m8yUCIYfkglU+Ahwz6460l/43Knl0OfjljgIp1FG\nr8FRMr4osBrnjzBO+Hv20FU+ltpfO7JFzlyfBL+VAoGBAN/YMmjg51coruV8Vrka\nhez66oibhjfOQPwJ0IF3nRhIfUe1gaVa4OnWSzOaDxGr9lsOjZfbWjvvBJY86ha9\n76DdGnprL432hQi9stzS14srYWQEY7kTLR1iZGIWqz0UkBNrLkMRu4WLlAoRq8xZ\ncsoeqCFyIoGz7EbbLe6VMIBp\n-----END PRIVATE KEY-----\n",
  "client_email": "upload-v1@odoo-v16-ent.iam.gserviceaccount.com",
  "client_id": "118289108149318774648",
  "auth_uri": "https://accounts.google.com/o/oauth2/auth",
  "token_uri": "https://oauth2.googleapis.com/token",
  "auth_provider_x509_cert_url": "https://www.googleapis.com/oauth2/v1/certs",
  "client_x509_cert_url": "https://www.googleapis.com/robot/v1/metadata/x509/upload-v1%40odoo-v16-ent.iam.gserviceaccount.com",
  "universe_domain": "googleapis.com"
}
